[
    {
        "username": null,
        "date": null,
        "nname": null,
        "fname": null,
        "lname": null,
        "studentYear": null,
        "major": null,
        "advisor": null,
        "noHome": null,
        "swine": null,
        "district": null,
        "districts": null,
        "country": null,
        "zip": null,
        "noPhone": null,
        "cause": null,
        "email": null,
        "addsubjectList": [
            {
                "subjectCode": null,
                "subjectName": null,
                "subjectSection": null,
                "subjectDate": null,
                "subjectCredit": null,
                "subjectTeacher": null,
                "subjectTeacherStatus": null
            }
        ],
        "cost": null
    },
    {
        "username": "6309650023",
        "date": "2021-11-25",
        "nname": "Mr.",
        "fname": "ธีรัตม์",
        "lname": "ศรีประเสริฐ",
        "studentYear": "2",
        "major": "วิทยาการคอมพิวเตอร์ประยุกต์",
        "advisor": "ผศ.ดร.วนิดา พฤทธิวิทยา",
        "noHome": "1",
        "swine": "1",
        "district": "คลองหนึ่ง",
        "districts": "คลองหลวง",
        "country": "ปทุมธานี",
        "zip": "12300",
        "noPhone": "0123456789",
        "cause": "            ",
        "email": "teerat.sri@dome.tu.ac.th",
        "addsubjectList": [
            {
                "subjectCode": "CS264",
                "subjectName": "INTRODUCTION TO SOFTWARE ENGINEERING",
                "subjectSection": "650001",
                "subjectDate": "Monday",
                "subjectCredit": 3,
                "subjectTeacher": "ผศ.ดร.ทรงศักดิ์ รองวิริยะพานิช",
                "subjectTeacherStatus": "Fail"
            },
            {
                "subjectCode": "CS111",
                "subjectName": "OBJECT-ORIENTED PROGRAMMING",
                "subjectSection": "650001",
                "subjectDate": "Friday",
                "subjectCredit": 3,
                "subjectTeacher": "ผศ.ดร.ทรงศักดิ์ รองวิริยะพานิช",
                "subjectTeacherStatus": "Waiting"
            }
        ],
        "cost": null
    },
    {
        "username": "6309650023",
        "date": "2021-11-26",
        "nname": "Mr.",
        "fname": "กฟห",
        "lname": "ก",
        "studentYear": "2",
        "major": "วิทยาการคอมพิวเตอร์ประยุกต์",
        "advisor": "gdgzcg",
        "noHome": "41",
        "swine": "1",
        "district": "fghgfh",
        "districts": "sdfdsg",
        "country": "sfgsgdsg",
        "zip": "12345",
        "noPhone": "0123456789",
        "cause": "asdasdasd",
        "email": "teerat.sri@dome.tu.ac.th",
        "addsubjectList": [
            {
                "subjectCode": "CS264",
                "subjectName": "INTRODUCTION TO SOFTWARE ENGINEERING",
                "subjectSection": "650001",
                "subjectDate": "Monday",
                "subjectCredit": 3,
                "subjectTeacher": "ผศ.ดร.ทรงศักดิ์ รองวิริยะพานิช",
                "subjectTeacherStatus": "Waiting"
            }
        ],
        "cost": null
    }
]