[
    {
        "subjectCode": "CS264",
        "subjectName": "INTRODUCTION TO SOFTWARE ENGINEERING",
        "subjectSection": "650001",
        "subjectDate": "Monday" ,
        "subjectCredit": 3,
        "subjectTeacher": "ผศ.ดร.ทรงศักดิ์ รองวิริยะพานิช",
        "subjectTeacherStatus": "Waiting"
    },
    {
        "subjectCode": "CS245",
        "subjectName": "PRINCIPLES OF DATA SCIENCE",
        "subjectSection": "650001",
        "subjectDate": "Wednesday",
        "subjectCredit": 3,
        "subjectTeacher": "ผศ.ดร. วนิดา พฤทธิวิทยา",
        "subjectTeacherStatus": "Waiting"
    },
    {
        "subjectCode": "CS233",
        "subjectName": "COMPUTER ARCHITECTURE AND OPERATING SYSTEMS",
        "subjectSection": "650001",
        "subjectDate": "Friday",
        "subjectCredit": 3,
        "subjectTeacher": "ผศ.ดร.เด่นดวง ประดับสุวรรณ",
        "subjectTeacherStatus": "Waiting"
    },
    {
        "subjectCode": "CS216",
        "subjectName": "DATA STRUCTURES AND ALGORITHMS",
        "subjectSection": "650001",
        "subjectDate": "Thursday",
        "subjectCredit": 3,
        "subjectTeacher": "ผศ.ดร.วิรัตน์ จารีวงศ์ไพบูลย์",
        "subjectTeacherStatus": "Waiting"
    },
    {
        "subjectCode": "CS111",
        "subjectName": "OBJECT-ORIENTED PROGRAMMING",
        "subjectSection": "650001",
        "subjectDate": "Friday",
        "subjectCredit": 3,
        "subjectTeacher": "ผศ.ดร.ทรงศักดิ์ รองวิริยะพานิช",
        "subjectTeacherStatus": "Waiting"
    }

]